!play
interactions:
-
  request:
    uri: /v2/orders
    headers:
      "Content-Type": application/json
      Authorization: Basic MDEwMTAxMDEwMTAxMDEwMTAxMDEwMTAxMDEwMTAxMDE6QUJBQkFCQUJBQkFCQUJBQkFCQUJBQkFCQUJBQkFCQUJBQkFCQUJBQg==
    method: GET
  response:
    status: 200
    headers:
      "Content-Type": application/json
    body: |
      {"_links":{"next":{"href":"https://test.moip.com.br/v2/orders?filters=&limit=0&offset=0"},"previous":{"href":"https://test.moip.com.br/v2/orders?filters=&limit=0&offset=0"}},"summary":{"count":1972,"amount":1089874890},"orders":[{"id":"ORD-UQUCZIB66I4U","ownId":"ord-595d1b2c13b9d","status":"WAITING","blocked":false,"amount":{"total":102470,"addition":0,"fees":0,"deduction":0,"otherReceivers":0,"currency":"BRL"},"receivers":[{"type":"PRIMARY","moipAccount":{"id":"MPA-8D5DBB4EF8B8"}}],"customer":{"fullname":"jose silva","email":"jose_silva0@email.com"},"items":[{"product":null}],"payments":[{"id":"PAY-VHECVJN1TDRM","installmentCount":1,"fundingInstrument":{"method":"BOLETO","brand":null}}],"events":[],"_links":{"self":{"href":"https://test.moip.com.br/v2/orders/ORD-UQUCZIB66I4U"}},"createdAt":"2017-09-22T07:28:10-0300","updatedAt":"2017-09-22T07:30:17-0300"},{"id":"ORD-OBC77GS8R20D","ownId":"ord-59c3fa5cf0ea0","status":"PAID","blocked":false,"amount":{"total":102470,"addition":0,"fees":0,"deduction":0,"otherReceivers":0,"currency":"BRL"},"receivers":[{"type":"PRIMARY","moipAccount":{"id":"MPA-8D5DBB4EF8B8"}}],"customer":{"fullname":"jose silva","email":"jose_silva0@email.com"},"items":[{"product":null}],"payments":[{"id":"PAY-J7TMPYV2ADH0","installmentCount":1,"fundingInstrument":{"method":"BOLETO","brand":null}}],"events":[{"type":"PAYMENT.AUTHORIZED","createdAt":"2017-09-21T14:44:00Z"}],"_links":{"self":{"href":"https://test.moip.com.br/v2/orders/ORD-OBC77GS8R20D"}},"createdAt":"2017-09-21T14:43:57-0300","updatedAt":"2017-09-21T14:44:00-0300"},{"id":"ORD-4RVLVSFSC9AE","ownId":"ord-59c3fa58766e4","status":"PAID","blocked":false,"amount":{"total":102470,"addition":0,"fees":0,"deduction":0,"otherReceivers":0,"currency":"BRL"},"receivers":[{"type":"PRIMARY","moipAccount":{"id":"MPA-8D5DBB4EF8B8"}}],"customer":{"fullname":"jose silva","email":"jose_silva0@email.com"},"items":[{"product":null}],"payments":[{"id":"PAY-W9HD9BLVNL3E","installmentCount":1,"fundingInstrument":{"method":"BOLETO","brand":null}}],"events":[{"type":"PAYMENT.AUTHORIZED","createdAt":"2017-09-21T14:43:55Z"}],"_links":{"self":{"href":"https://test.moip.com.br/v2/orders/ORD-4RVLVSFSC9AE"}},"createdAt":"2017-09-21T14:43:53-0300","updatedAt":"2017-09-21T14:43:55-0300"},{"id":"ORD-H5FIMINR0W3O","ownId":"ord-59c3fa5638128","status":"PAID","blocked":false,"amount":{"total":102470,"addition":0,"fees":0,"deduction":0,"otherReceivers":0,"currency":"BRL"},"receivers":[{"type":"PRIMARY","moipAccount":{"id":"MPA-8D5DBB4EF8B8"}}],"customer":{"fullname":"jose silva","email":"jose_silva0@email.com"},"items":[{"product":null}],"payments":[{"id":"PAY-TN95744ZUME5","installmentCount":1,"fundingInstrument":{"method":"CREDIT_CARD","brand":"MASTERCARD"}}],"events":[{"type":"PAYMENT.AUTHORIZED","createdAt":"2017-09-21T14:43:52Z"}],"_links":{"self":{"href":"https://test.moip.com.br/v2/orders/ORD-H5FIMINR0W3O"}},"createdAt":"2017-09-21T14:43:50-0300","updatedAt":"2017-09-21T14:43:52-0300"},{"id":"ORD-85OYQBNROZKM","ownId":"ord-59c3fa5290806","status":"PAID","blocked":false,"amount":{"total":102470,"addition":0,"fees":0,"deduction":0,"otherReceivers":0,"currency":"BRL"},"receivers":[{"type":"PRIMARY","moipAccount":{"id":"MPA-8D5DBB4EF8B8"}}],"customer":{"fullname":"jose silva","email":"jose_silva0@email.com"},"items":[{"product":null}],"payments":[{"id":"PAY-QEM2UXMVVWWE","installmentCount":1,"fundingInstrument":{"method":"CREDIT_CARD","brand":"MASTERCARD"}}],"events":[{"type":"PAYMENT.AUTHORIZED","createdAt":"2017-09-21T14:43:50Z"}],"_links":{"self":{"href":"https://test.moip.com.br/v2/orders/ORD-85OYQBNROZKM"}},"createdAt":"2017-09-21T14:43:48-0300","updatedAt":"2017-09-21T14:43:50-0300"},{"id":"ORD-W19WYVL6GKKS","ownId":"ord-59c3fa504341b","status":"WAITING","blocked":false,"amount":{"total":102470,"addition":0,"fees":0,"deduction":0,"otherReceivers":0,"currency":"BRL"},"receivers":[{"type":"PRIMARY","moipAccount":{"id":"MPA-8D5DBB4EF8B8"}}],"customer":{"fullname":"jose silva","email":"jose_silva0@email.com"},"items":[{"product":null}],"payments":[{"id":"PAY-T5XSX2GHIMQK","installmentCount":1,"fundingInstrument":{"method":"BOLETO","brand":null}}],"events":[],"_links":{"self":{"href":"https://test.moip.com.br/v2/orders/ORD-W19WYVL6GKKS"}},"createdAt":"2017-09-21T14:43:44-0300","updatedAt":"2017-09-21T14:43:46-0300"},{"id":"ORD-JIDFTO3BTXSR","ownId":"ord-59c3fa4df22ed","status":"PAID","blocked":false,"amount":{"total":102470,"addition":0,"fees":0,"deduction":0,"otherReceivers":0,"currency":"BRL"},"receivers":[{"type":"PRIMARY","moipAccount":{"id":"MPA-8D5DBB4EF8B8"}}],"customer":{"fullname":"jose silva","email":"jose_silva0@email.com"},"items":[{"product":null}],"payments":[{"id":"PAY-8ZKQPK447Z3H","installmentCount":1,"fundingInstrument":{"method":"CREDIT_CARD","brand":"MASTERCARD"}}],"events":[{"type":"PAYMENT.AUTHORIZED","createdAt":"2017-09-21T14:43:44Z"}],"_links":{"self":{"href":"https://test.moip.com.br/v2/orders/ORD-JIDFTO3BTXSR"}},"createdAt":"2017-09-21T14:43:42-0300","updatedAt":"2017-09-21T14:43:44-0300"},{"id":"ORD-74SBQG24I8XO","ownId":"ord-59c3fa4315bb6","status":"PAID","blocked":false,"amount":{"total":102470,"addition":0,"fees":0,"deduction":0,"otherReceivers":0,"currency":"BRL"},"receivers":[{"type":"PRIMARY","moipAccount":{"id":"MPA-8D5DBB4EF8B8"}}],"customer":{"fullname":"jose silva","email":"jose_silva0@email.com"},"items":[{"product":null}],"payments":[{"id":"PAY-1GZSUTWLROOX","installmentCount":1,"fundingInstrument":{"method":"CREDIT_CARD","brand":"MASTERCARD"}}],"events":[{"type":"PAYMENT.AUTHORIZED","createdAt":"2017-09-21T14:43:33Z"}],"_links":{"self":{"href":"https://test.moip.com.br/v2/orders/ORD-74SBQG24I8XO"}},"createdAt":"2017-09-21T14:43:31-0300","updatedAt":"2017-09-21T14:43:33-0300"},{"id":"ORD-52V6IDQXO7LI","ownId":"ord-59c3f9ddabed0","status":"PAID","blocked":false,"amount":{"total":102470,"addition":0,"fees":0,"deduction":0,"otherReceivers":0,"currency":"BRL"},"receivers":[{"type":"PRIMARY","moipAccount":{"id":"MPA-8D5DBB4EF8B8"}}],"customer":{"fullname":"jose silva","email":"jose_silva0@email.com"},"items":[{"product":null}],"payments":[{"id":"PAY-M046NUS62E84","installmentCount":1,"fundingInstrument":{"method":"BOLETO","brand":null}}],"events":[{"type":"PAYMENT.AUTHORIZED","createdAt":"2017-09-21T14:41:52Z"}],"_links":{"self":{"href":"https://test.moip.com.br/v2/orders/ORD-52V6IDQXO7LI"}},"createdAt":"2017-09-21T14:41:50-0300","updatedAt":"2017-09-21T14:41:52-0300"},{"id":"ORD-VHW1WBYW3RML","ownId":"ord-59c3f9d7812aa","status":"PAID","blocked":false,"amount":{"total":102470,"addition":0,"fees":0,"deduction":0,"otherReceivers":0,"currency":"BRL"},"receivers":[{"type":"PRIMARY","moipAccount":{"id":"MPA-8D5DBB4EF8B8"}}],"customer":{"fullname":"jose silva","email":"jose_silva0@email.com"},"items":[{"product":null}],"payments":[{"id":"PAY-MAHQ5E1DHA1R","installmentCount":1,"fundingInstrument":{"method":"BOLETO","brand":null}}],"events":[{"type":"PAYMENT.AUTHORIZED","createdAt":"2017-09-21T14:41:46Z"}],"_links":{"self":{"href":"https://test.moip.com.br/v2/orders/ORD-VHW1WBYW3RML"}},"createdAt":"2017-09-21T14:41:44-0300","updatedAt":"2017-09-21T14:41:46-0300"},{"id":"ORD-Q1P5FM2D3JIM","ownId":"ord-59c3f9d5323fc","status":"PAID","blocked":false,"amount":{"total":102470,"addition":0,"fees":0,"deduction":0,"otherReceivers":0,"currency":"BRL"},"receivers":[{"type":"PRIMARY","moipAccount":{"id":"MPA-8D5DBB4EF8B8"}}],"customer":{"fullname":"jose silva","email":"jose_silva0@email.com"},"items":[{"product":null}],"payments":[{"id":"PAY-ZIFEHK3GZCU1","installmentCount":1,"fundingInstrument":{"method":"CREDIT_CARD","brand":"MASTERCARD"}}],"events":[{"type":"PAYMENT.AUTHORIZED","createdAt":"2017-09-21T14:41:43Z"}],"_links":{"self":{"href":"https://test.moip.com.br/v2/orders/ORD-Q1P5FM2D3JIM"}},"createdAt":"2017-09-21T14:41:41-0300","updatedAt":"2017-09-21T14:41:43-0300"},{"id":"ORD-0MJN4QICU207","ownId":"ord-59c3f9d2cf466","status":"PAID","blocked":false,"amount":{"total":102470,"addition":0,"fees":0,"deduction":0,"otherReceivers":0,"currency":"BRL"},"receivers":[{"type":"PRIMARY","moipAccount":{"id":"MPA-8D5DBB4EF8B8"}}],"customer":{"fullname":"jose silva","email":"jose_silva0@email.com"},"items":[{"product":null}],"payments":[{"id":"PAY-4PO2XZCNFVDE","installmentCount":1,"fundingInstrument":{"method":"CREDIT_CARD","brand":"MASTERCARD"}}],"events":[{"type":"PAYMENT.AUTHORIZED","createdAt":"2017-09-21T14:41:41Z"}],"_links":{"self":{"href":"https://test.moip.com.br/v2/orders/ORD-0MJN4QICU207"}},"createdAt":"2017-09-21T14:41:39-0300","updatedAt":"2017-09-21T14:41:41-0300"},{"id":"ORD-UODQFL1V325X","ownId":"ord-59c3f9d03c09f","status":"WAITING","blocked":false,"amount":{"total":102470,"addition":0,"fees":0,"deduction":0,"otherReceivers":0,"currency":"BRL"},"receivers":[{"type":"PRIMARY","moipAccount":{"id":"MPA-8D5DBB4EF8B8"}}],"customer":{"fullname":"jose silva","email":"jose_silva0@email.com"},"items":[{"product":null}],"payments":[{"id":"PAY-W0SCISBNFN4W","installmentCount":1,"fundingInstrument":{"method":"BOLETO","brand":null}}],"events":[],"_links":{"self":{"href":"https://test.moip.com.br/v2/orders/ORD-UODQFL1V325X"}},"createdAt":"2017-09-21T14:41:37-0300","updatedAt":"2017-09-21T14:41:38-0300"},{"id":"ORD-74EBKG0G6XDS","ownId":"ord-59c3f9ce1e6d3","status":"PAID","blocked":false,"amount":{"total":102470,"addition":0,"fees":0,"deduction":0,"otherReceivers":0,"currency":"BRL"},"receivers":[{"type":"PRIMARY","moipAccount":{"id":"MPA-8D5DBB4EF8B8"}}],"customer":{"fullname":"jose silva","email":"jose_silva0@email.com"},"items":[{"product":null}],"payments":[{"id":"PAY-QBKL7A2U3M66","installmentCount":1,"fundingInstrument":{"method":"CREDIT_CARD","brand":"MASTERCARD"}}],"events":[{"type":"PAYMENT.AUTHORIZED","createdAt":"2017-09-21T14:41:36Z"}],"_links":{"self":{"href":"https://test.moip.com.br/v2/orders/ORD-74EBKG0G6XDS"}},"createdAt":"2017-09-21T14:41:34-0300","updatedAt":"2017-09-21T14:41:36-0300"},{"id":"ORD-110DW585PTMP","ownId":"ord-59c3f9c34604c","status":"PAID","blocked":false,"amount":{"total":102470,"addition":0,"fees":0,"deduction":0,"otherReceivers":0,"currency":"BRL"},"receivers":[{"type":"PRIMARY","moipAccount":{"id":"MPA-8D5DBB4EF8B8"}}],"customer":{"fullname":"jose silva","email":"jose_silva0@email.com"},"items":[{"product":null}],"payments":[{"id":"PAY-6VMXLZKDBFI3","installmentCount":1,"fundingInstrument":{"method":"CREDIT_CARD","brand":"MASTERCARD"}}],"events":[{"type":"PAYMENT.AUTHORIZED","createdAt":"2017-09-21T14:41:25Z"}],"_links":{"self":{"href":"https://test.moip.com.br/v2/orders/ORD-110DW585PTMP"}},"createdAt":"2017-09-21T14:41:23-0300","updatedAt":"2017-09-21T14:41:25-0300"},{"id":"ORD-UUZ9XBNLBFII","ownId":"ord-59c3f975eb800","status":"PAID","blocked":false,"amount":{"total":102470,"addition":0,"fees":0,"deduction":0,"otherReceivers":0,"currency":"BRL"},"receivers":[{"type":"PRIMARY","moipAccount":{"id":"MPA-8D5DBB4EF8B8"}}],"customer":{"fullname":"jose silva","email":"jose_silva0@email.com"},"items":[{"product":null}],"payments":[{"id":"PAY-XVOH50HEOM15","installmentCount":1,"fundingInstrument":{"method":"BOLETO","brand":null}}],"events":[{"type":"PAYMENT.AUTHORIZED","createdAt":"2017-09-21T14:40:09Z"}],"_links":{"self":{"href":"https://test.moip.com.br/v2/orders/ORD-UUZ9XBNLBFII"}},"createdAt":"2017-09-21T14:40:06-0300","updatedAt":"2017-09-21T14:40:09-0300"},{"id":"ORD-K50I1EIAC3WJ","ownId":"ord-59c3f971278c0","status":"PAID","blocked":false,"amount":{"total":102470,"addition":0,"fees":0,"deduction":0,"otherReceivers":0,"currency":"BRL"},"receivers":[{"type":"PRIMARY","moipAccount":{"id":"MPA-8D5DBB4EF8B8"}}],"customer":{"fullname":"jose silva","email":"jose_silva0@email.com"},"items":[{"product":null}],"payments":[{"id":"PAY-PA668QF0BL5J","installmentCount":1,"fundingInstrument":{"method":"BOLETO","brand":null}}],"events":[{"type":"PAYMENT.AUTHORIZED","createdAt":"2017-09-21T14:40:04Z"}],"_links":{"self":{"href":"https://test.moip.com.br/v2/orders/ORD-K50I1EIAC3WJ"}},"createdAt":"2017-09-21T14:40:01-0300","updatedAt":"2017-09-21T14:40:04-0300"},{"id":"ORD-FJ99S3TMHWR0","ownId":"ord-59c3f96eddb27","status":"PAID","blocked":false,"amount":{"total":102470,"addition":0,"fees":0,"deduction":0,"otherReceivers":0,"currency":"BRL"},"receivers":[{"type":"PRIMARY","moipAccount":{"id":"MPA-8D5DBB4EF8B8"}}],"customer":{"fullname":"jose silva","email":"jose_silva0@email.com"},"items":[{"product":null}],"payments":[{"id":"PAY-Y5CP70KKOXOX","installmentCount":1,"fundingInstrument":{"method":"CREDIT_CARD","brand":"MASTERCARD"}}],"events":[{"type":"PAYMENT.AUTHORIZED","createdAt":"2017-09-21T14:40:01Z"}],"_links":{"self":{"href":"https://test.moip.com.br/v2/orders/ORD-FJ99S3TMHWR0"}},"createdAt":"2017-09-21T14:39:59-0300","updatedAt":"2017-09-21T14:40:01-0300"},{"id":"ORD-VKY49B4FCFTH","ownId":"ord-59c3f96cb9850","status":"PAID","blocked":false,"amount":{"total":102470,"addition":0,"fees":0,"deduction":0,"otherReceivers":0,"currency":"BRL"},"receivers":[{"type":"PRIMARY","moipAccount":{"id":"MPA-8D5DBB4EF8B8"}}],"customer":{"fullname":"jose silva","email":"jose_silva0@email.com"},"items":[{"product":null}],"payments":[{"id":"PAY-OZ4SACSGA8NQ","installmentCount":1,"fundingInstrument":{"method":"CREDIT_CARD","brand":"MASTERCARD"}}],"events":[{"type":"PAYMENT.AUTHORIZED","createdAt":"2017-09-21T14:39:58Z"}],"_links":{"self":{"href":"https://test.moip.com.br/v2/orders/ORD-VKY49B4FCFTH"}},"createdAt":"2017-09-21T14:39:57-0300","updatedAt":"2017-09-21T14:39:58-0300"},{"id":"ORD-6GZTVWVQHFL9","ownId":"ord-59c3f96a71db4","status":"WAITING","blocked":false,"amount":{"total":102470,"addition":0,"fees":0,"deduction":0,"otherReceivers":0,"currency":"BRL"},"receivers":[{"type":"PRIMARY","moipAccount":{"id":"MPA-8D5DBB4EF8B8"}}],"customer":{"fullname":"jose silva","email":"jose_silva0@email.com"},"items":[{"product":null}],"payments":[{"id":"PAY-U4KESKJWJGKD","installmentCount":1,"fundingInstrument":{"method":"BOLETO","brand":null}}],"events":[],"_links":{"self":{"href":"https://test.moip.com.br/v2/orders/ORD-6GZTVWVQHFL9"}},"createdAt":"2017-09-21T14:39:55-0300","updatedAt":"2017-09-21T14:39:56-0300"}]}
