!play
interactions:
-
  request:
    uri: /v2/invoices?limit=5
    headers:
      "Content-Type": application/json
      Authorization: Basic MDEwMTAxMDEwMTAxMDEwMTAxMDEwMTAxMDEwMTAxMDE6QUJBQkFCQUJBQkFCQUJBQkFCQUJBQkFCQUJBQkFCQUJBQkFCQUJBQg==
    method: GET
  response:
    status: 200
    headers:
      "Content-Type": application/json
    body: |
        { "_links": { "next": { "href": "https://test.moip.com.br/v2/invoices?limit=10&offset=010" }, "previous": { "href": "https://test.moip.com.br/v2/invoices?limit=10&offset=0" } }, "summary": { "count": 162, "amount": 3189301425 }, "invoices": [ { "id": "INV-7761BDB06412", "invoiceAmount": 12610, "customer": { "email": "vagner.vieira@moip.com.br" }, "checkoutPreferences": { "fundingInstruments": { "suppressBoleto": true }, "installments": [ { "quantity": [ 1, 2 ] }, { "quantity": [ 6, 9 ] } ], "suppressShippingAddress": true }, "status": "SENT", "createdAt": "2015-11-03T13:05:00.962Z", "updatedAt": "2015-11-03T13:05:00.962Z", "_links": { "self": { "href": "/invoice/INV-7761BDB06412" }, "checkout": { "pay": "/invoice/INV-7761BDB06412" } } }, { "id": "INV-7761BDB06412", "invoiceAmount": 12610, "customer": { "email": "vagner.vieira@moip.com.br" }, "checkoutPreferences": { "fundingInstruments": { "suppressBoleto": true }, "installments": [ { "quantity": [ 1, 2 ] }, { "quantity": [ 6, 9 ] } ], "suppressShippingAddress": true }, "status": "SENT", "createdAt": "2015-11-03T13:05:00.962Z", "updatedAt": "2015-11-03T13:05:00.962Z", "_links": { "self": { "href": "/invoice/INV-7761BDB06412" }, "checkout": { "pay": "/invoice/INV-7761BDB06412" } } }, { "id": "INV-7761BDB06412", "invoiceAmount": 12610, "customer": { "email": "vagner.vieira@moip.com.br" }, "checkoutPreferences": { "fundingInstruments": { "suppressBoleto": true }, "installments": [ { "quantity": [ 1, 2 ] }, { "quantity": [ 6, 9 ] } ], "suppressShippingAddress": true }, "status": "SENT", "createdAt": "2015-11-03T13:05:00.962Z", "updatedAt": "2015-11-03T13:05:00.962Z", "_links": { "self": { "href": "/invoice/INV-7761BDB06412" }, "checkout": { "pay": "/invoice/INV-7761BDB06412" } } }, { "id": "INV-7761BDB06412", "invoiceAmount": 12610, "customer": { "email": "vagner.vieira@moip.com.br" }, "checkoutPreferences": { "fundingInstruments": { "suppressBoleto": true }, "installments": [ { "quantity": [ 1, 2 ] }, { "quantity": [ 6, 9 ] } ], "suppressShippingAddress": true }, "status": "SENT", "createdAt": "2015-11-03T13:05:00.962Z", "updatedAt": "2015-11-03T13:05:00.962Z", "_links": { "self": { "href": "/invoice/INV-7761BDB06412" }, "checkout": { "pay": "/invoice/INV-7761BDB06412" } } }, { "id": "INV-7761BDB06412", "invoiceAmount": 12610, "customer": { "email": "vagner.vieira@moip.com.br" }, "checkoutPreferences": { "fundingInstruments": { "suppressBoleto": true }, "installments": [ { "quantity": [ 1, 2 ] }, { "quantity": [ 6, 9 ] } ], "suppressShippingAddress": true }, "status": "SENT", "createdAt": "2015-11-03T13:05:00.962Z", "updatedAt": "2015-11-03T13:05:00.962Z", "_links": { "self": { "href": "/invoice/INV-7761BDB06412" }, "checkout": { "pay": "/invoice/INV-7761BDB06412" } } } ] }